{
    "editor": [
        {
            "icon": "",
            "key": "preGameScreen",
            "header": "PreGameScreen",
            "disabled": false,
            "fields": [
                {
                    "key": "titleText",
                    "header": "Title Text",
                    "type": "text"
                },
                {
                    "key": "titleTextSize",
                    "header": "Title text size",
                    "type": "range",
                    "options": {
                        "minValue": 20,
                        "maxValue": 40,
                        "stepSize": "1"
                    }
                },
                {
                    "key": "playButtonText",
                    "header": "Play Button Text",
                    "type": "text"
                },
                {
                    "key": "buttonTextColor",
                    "header": "Play Button Text Color",
                    "type": "color"
                },
                {
                    "key": "backgroundImage",
                    "header": "Background Image",
                    "type": "image"
                },
                {
                    "key": "backgroundMode",
                    "header": "Background image mode",
                    "type": "dropdown",
                    "options": [
                        "cover",
                        "fit",
                        "stretch"
                    ]
                },
                {
                    "key": "backgroundColor",
                    "header": "Background Color",
                    "type": "color"
                },
                {
                    "key": "titleImage",
                    "header": "Header Image",
                    "type": "image"
                },
                {
                    "key": "titleImageSize",
                    "header": "Header image size",
                    "type": "range",
                    "options": {
                        "minValue": 150,
                        "maxValue": 400,
                        "stepSize": "1"
                    }
                },
                {
                    "key": "cardColor",
                    "header": "Card Color",
                    "type": "color"
                },
                {
                    "key": "buttonColor",
                    "header": "Play Button Color",
                    "type": "color"
                },
                {
                    "key": "fontFamily",
                    "header": "Google Font Name",
                    "type": "text"
                },
                {
                    "key": "showLeaderboardButton",
                    "header": "Show leaderboard button",
                    "type": "boolean"
                },
                {
                    "key": "leaderboardButtonText",
                    "header": "Leaderboard button text",
                    "type": "text"
                },
                {
                    "key": "showSoundButton",
                    "header": "Show sound button",
                    "type": "boolean"
                },
                {
                    "key": "soundEnabledIcon",
                    "type": "image",
                    "header": "Sound enabled icon"
                },
                {
                    "key": "soundDisabledIcon",
                    "type": "image",
                    "header": "Sound disabled icon"
                },
                {
                    "key": "currentScreen",
                    "header": "Debug: screen view",
                    "type": "dropdown",
                    "options": [
                        "preGameScreen",
                        "gameScreen",
                        "postGameScreen"
                    ]
                }
            ]
        },
        {
            "icon": "",
            "key": "settings",
            "header": "Game Settings",
            "disabled": false,
            "fields": [
                {
                    "key": "instructions1",
                    "type": "text",
                    "header": "Instructions Text 1"
                },
                {
                    "key": "instructions2",
                    "type": "text",
                    "header": "Instructions Text 2"
                },
                {
                    "key": "instructions3",
                    "type": "text",
                    "header": "Instructions Text 3"
                },
                {
                    "key": "scoreToWin",
                    "header": "Score required to win",
                    "type": "range",
                    "options": {
                        "stepSize": 1,
                        "minValue": 0,
                        "maxValue": 100
                    }
                },
                {
                    "key": "pipeBody",
                    "header": "Pipe body image",
                    "type": "image"
                },
                {
                    "key": "pipeHead",
                    "header": "Pipe end image",
                    "type": "image"
                },
                {
                    "key": "idle",
                    "header": "Bird idle image",
                    "type": "image"
                },
                {
                    "key": "jump",
                    "header": "Bird jump image",
                    "type": "image"
                },
                {
                    "key": "coins",
                    "header": "Coin images",
                    "type": "array",
                    "fields": [
                        {
                            "key": "coin1",
                            "header": "Coin 1",
                            "type": "image"
                        }
                    ]
                },
                {
                    "key": "gapLevel",
                    "header": "Gap size",
                    "type": "range",
                    "options": {
                        "minValue": 1,
                        "maxValue": 4,
                        "stepSize": 1
                    }
                },
                {
                    "key": "spawnCd",
                    "header": "Distance between gates",
                    "type": "range",
                    "options": {
                        "minValue": 1,
                        "maxValue": 4,
                        "stepSize": 1
                    }
                },
                {
                    "key": "coinScore",
                    "header": "Extra score per coin",
                    "type": "range",
                    "options": {
                        "minValue": 0,
                        "maxValue": 5,
                        "stepSize": 1
                    }
                },
                {
                    "key": "confetti",
                    "header": "Show confetti when player wins",
                    "type": "boolean"
                },
                {
                    "key": "jumpParticles",
                    "header": "Show jump particles",
                    "type": "boolean"
                },
                {
                    "key": "jumpParticlesColor",
                    "header": "Jump particles color",
                    "type": "color"
                },
                {
                    "key": "textColor",
                    "header": "In Game Text Color",
                    "type": "color"
                },
                {
                    "key": "loseText",
                    "header": "Lose text",
                    "type": "text"
                },
                {
                    "key": "winText",
                    "header": "Win text",
                    "type": "text"
                },
                {
                    "key": "tap",
                    "header": "Tap sound effect",
                    "type": "sound"
                },
                {
                    "key": "coinSound",
                    "header": "Coin collect sound",
                    "type": "sound"
                },
                {
                    "key": "theme",
                    "header": "Background Music",
                    "type": "sound"
                },
                {
                    "key": "lose",
                    "header": "Lose sound effect",
                    "type": "sound"
                },
                {
                    "key": "volume",
                    "header": "Background music volume",
                    "type": "range",
                    "options": {
                        "minValue": 0,
                        "maxValue": 1,
                        "stepSize": "0.1"
                    }
                }
            ]
        },
        {
            "icon": "",
            "key": "postGameScreen",
            "header": "Post Game Screen",
            "disabled": false,
            "fields": [
                {
                    "key": "scoreText",
                    "header": "Text before score",
                    "type": "text"
                },
                {
                    "key": "textColor",
                    "header": "Text Color",
                    "type": "color"
                },
                {
                    "key": "buttonTextColor",
                    "header": "Button text color",
                    "type": "color"
                },
                {
                    "key": "cardColor",
                    "header": "Card Background Color",
                    "type": "color"
                },
                {
                    "key": "playButtonText",
                    "header": "Play again button text",
                    "type": "text"
                },
                {
                    "key": "buttonColor",
                    "header": "Buttons color",
                    "type": "color"
                },
                {
                    "key": "buttonTextColor",
                    "header": "Buttons text color",
                    "type": "color"
                },
                {
                    "key": "showText",
                    "header": "Show custom text",
                    "type": "boolean"
                },
                {
                    "key": "customText",
                    "header": "Custom text",
                    "type": "text"
                },
                {
                    "key": "submitName",
                    "header": "Show name field",
                    "type": "boolean"
                },
                {
                    "key": "submitEmail",
                    "header": "Show email field",
                    "type": "boolean"
                },
                {
                    "key": "submitScoreText",
                    "header": "Submit score button text",
                    "type": "text"
                },
                {
                    "key": "showLeadeboardButtonPostGameScreen",
                    "header": "Show Leadeboard Button",
                    "type": "boolean"
                },
                {
                    "key": "leaderboardButtonText",
                    "type": "text",
                    "header": "Leadeboard button text"
                },
                {
                    "key": "showCTA",
                    "header": "Show CTA Button",
                    "type": "boolean"
                },
                {
                    "key": "ctaText",
                    "header": "CTA text",
                    "type": "text"
                },
                {
                    "key": "ctaButtonText",
                    "header": "CTA button text",
                    "type": "text"
                },
                {
                    "key": "ctaUrl",
                    "header": "CTA Link",
                    "type": "text"
                }
            ]
        }
    ],
    "config": {
        "preGameScreen": {
            "titleText": "Flappy bird",
            "titleTextSize": 30,
            "playButtonText": "🚀 Play",
            "cardColor": "#fffefe",
            "buttonColor": "#181718",
            "buttonTextColor": "#fffeff",
            "backgroundImage": "https://frontend.apps.playcent.com/6d2e65ff737e44c7ad6a3e7dec85d365/assets/ezgif.com-webp-to-jpg (2).jpg",
            "backgroundColor": "#ffffff",
            "backgroundMode": "stretch",
            "titleImage": "https://frontend.apps.playcent.com/6d2e65ff737e44c7ad6a3e7dec85d365/assets/chocolate-character_23-2147517596-removebg-preview (1).png",
            "titleImageSize": 200,
            "fontFamily": "Open Sans",
            "showLeaderboardButton": false,
            "leaderboardButtonText": "Leaderboard",
            "showSoundButton": true,
            "soundEnabledIcon": "https://frontend.apps.playcent.com/flappy/assets/sound_on.png",
            "soundDisabledIcon": "https://frontend.apps.playcent.com/flappy/assets/sound_off.png",
            "currentScreen": "preGameScreen"
        },
        "settings": {
            "instructions1": "Tap / Spacebar to jump",
            "instructions2": "Stay between the pipes!",
            "instructions3": "Have fun!",
            "scoreToWin": 95,
            "textColor": "#000000",
            "pipeHead": "https://frontend.apps.playcent.com/d9d0dd7e7b524104840e35a380dc7fff/assets/5457292e-5182-4cb1-b1e0-fe040052a7da.__CR0,0,350,175_PT0_SX350_V1___.jpeg",
            "pipeBody": "https://frontend.apps.playcent.com/d9d0dd7e7b524104840e35a380dc7fff/assets/final_5f930e04b73a16007a2ffd4b_142489.png",
            "idle": "https://frontend.apps.playcent.com/6d2e65ff737e44c7ad6a3e7dec85d365/assets/chocolate-character_23-2147517596-removebg-preview_(2)_(1) (1).png",
            "jump": "https://frontend.apps.playcent.com/6d2e65ff737e44c7ad6a3e7dec85d365/assets/chocolate-character_23-2147517596-removebg-preview_(2)_(1) (1).png",
            "coins": {
                "coin1": "https://frontend.apps.playcent.com/6d2e65ff737e44c7ad6a3e7dec85d365/assets/pngtree-gourmet-chocolate-cartoon-free-image_1482638-removebg-preview.png"
            },
            "confetti": true,
            "jumpParticles": false,
            "jumpParticlesColor": "#ffffff",
            "gapLevel": 4,
            "spawnCd": 3,
            "coinScore": 3,
            "loseText": "Maybe next time!",
            "winText": "Congrats, you won!",
            "theme": "https://frontend.apps.playcent.com/d800f42b7f1a4066b3d8e5f3437dcb7c/assets/Eyes_of_Glory (mp3cut.net).mp3",
            "volume": 1,
            "tap": "https://frontend.apps.playcent.com/d800f42b7f1a4066b3d8e5f3437dcb7c/assets/244976__ani-music__wing-flap-flag-flapping-4a.mp3",
            "coinSound": "https://frontend.apps.playcent.com/d800f42b7f1a4066b3d8e5f3437dcb7c/assets/402288__matrixxx__retro-coin-02.mp3",
            "lose": "https://frontend.apps.playcent.com/d800f42b7f1a4066b3d8e5f3437dcb7c/assets/133283__leszek-szary__game-over (1).mp3"
        },
        "postGameScreen": {
            "scoreText": "Your score is: ",
            "playButtonText": "Play Again",
            "buttonColor": "#000000",
            "cardColor": "#ffffff",
            "textColor": "#000000",
            "buttonTextColor": "#ffffff",
            "showLeadeboardButtonPostGameScreen": false,
            "submitScoreText": "Submit score",
            "leaderboardButtonText": "Leaderboard",
            "showText": false,
            "customText": "",
            "submitName": false,
            "submitEmail": false,
            "showCTA": false,
            "ctaText": "Check out Playcent",
            "ctaButtonText": "Go",
            "ctaUrl": "https://playcent.com"
        }
    }
}